{
    "overdose_lesson_three": {
        "column": {
            "id": true,
            "year_of_produce": true,
            "model": true,
            "comment": true,
            "created_at": true,
            "updated_at": true
        },
        "constraint": {
            "PRIMARY": true
        }
    }
}